# Blender MTL File: 'ship3.blend'
# Material Count: 1
newmtl Material
Ns 96.078431
Ka 0.000000 0.000000 0.000000
Kd 0.640000 0.016079 0.000000
Ks 0.500000 0.404745 0.136988
Ni 1.000000
d 1.000000
illum 2


